1.0.0.0/24
1.1.1.0/24
5.101.36.0/24
5.101.39.0/24
5.226.179.0/24
5.252.118.0/24
8.6.112.0/24
8.6.144.0/23
8.6.146.0/24
8.9.230.0/23
8.10.148.0/24
8.14.199.0/24
8.14.201.0/24
8.14.202.0/23
8.14.204.0/24
8.17.205.0/24
8.17.206.0/23
8.18.50.0/24
8.18.113.0/24
8.18.194.0/23
8.18.196.0/24
8.20.100.0/23
8.20.103.0/24
8.20.122.0/23
8.20.124.0/22
8.20.253.0/24
8.21.8.0/22
8.21.13.0/24
8.21.110.0/23
8.21.238.0/23
8.23.139.0/24
8.23.240.0/24
8.24.87.0/24
8.24.242.0/23
8.24.244.0/24
8.25.96.0/23
8.25.249.0/24
8.26.176.0/24
8.26.180.0/24
8.26.182.0/24
8.27.64.0/24
8.27.66.0/23
8.27.68.0/23
8.27.70.0/24
8.27.79.0/24
8.28.20.0/24
8.28.82.0/24
8.28.126.0/23
8.28.213.0/24
8.29.105.0/24
8.29.109.0/24
8.29.228.0/24
8.29.230.0/23
8.30.234.0/24
8.31.2.0/24
8.31.160.0/23
8.31.163.0/24
8.34.69.0/24
8.34.70.0/24
8.35.57.0/24
8.35.58.0/23
8.35.149.0/24
8.35.211.0/24
8.36.216.0/23
8.36.218.0/24
8.36.220.0/24
8.37.41.0/24
8.37.43.0/24
8.38.147.0/24
8.38.148.0/23
8.38.172.0/24
8.39.6.0/24
8.39.18.0/24
8.39.125.0/24
8.39.126.0/23
8.39.201.0/24
8.39.202.0/23
8.39.204.0/22
8.39.212.0/22
8.40.26.0/23
8.40.28.0/22
8.40.107.0/24
8.40.111.0/24
8.40.140.0/24
8.41.5.0/24
8.41.6.0/23
8.41.36.0/23
8.41.39.0/24
8.42.51.0/24
8.42.52.0/24
8.42.54.0/23
8.42.161.0/24
8.42.164.0/24
8.42.172.0/24
8.42.245.0/24
8.43.121.0/24
8.43.122.0/23
8.43.224.0/23
8.43.226.0/24
8.44.0.0/22
8.44.6.0/24
8.44.58.0/23
8.44.60.0/22
8.45.41.0/24
8.45.42.0/23
8.45.44.0/22
8.45.97.0/24
8.45.100.0/23
8.45.102.0/24
8.45.108.0/24
8.45.111.0/24
8.45.144.0/22
8.45.151.0/24
8.46.113.0/24
8.46.114.0/23
8.46.116.0/22
8.47.9.0/24
8.47.12.0/22
8.47.69.0/24
8.47.71.0/24
8.48.130.0/23
8.48.132.0/23
8.48.134.0/24
12.221.133.0/24
23.227.37.0/24
23.227.38.0/23
31.43.179.0/24
45.8.104.0/22
45.8.211.0/24
45.12.30.0/23
45.14.173.0/24
45.14.174.0/24
45.85.118.0/23
45.131.4.0/22
45.131.208.0/22
45.133.246.0/23
45.142.120.0/24
45.145.28.0/23
64.68.192.0/24
64.179.227.0/24
64.179.228.0/24
65.110.63.0/24
66.235.200.0/24
68.67.65.0/24
72.52.113.0/24
80.94.83.0/24
89.47.56.0/23
89.207.18.0/24
91.132.150.0/23
91.192.106.0/23
91.193.58.0/23
91.226.97.0/24
91.234.214.0/24
91.243.35.0/24
93.114.64.0/23
103.21.244.0/22
103.22.200.0/22
103.31.4.0/22
103.81.228.0/24
103.156.22.0/23
103.160.204.0/24
103.169.142.0/24
103.172.110.0/23
103.204.13.0/24
103.244.116.0/22
104.16.0.0/12
104.218.62.0/23
104.254.140.0/24
108.162.192.0/18
108.165.216.0/24
131.0.72.0/22
141.101.64.0/18
141.193.213.0/24
146.19.22.0/24
147.78.140.0/24
147.185.161.0/24
154.83.2.0/24
154.83.22.0/23
154.83.30.0/23
154.84.14.0/23
154.84.16.0/21
154.84.24.0/22
154.85.8.0/22
154.94.8.0/23
154.219.2.0/23
156.237.4.0/23
156.238.14.0/23
156.238.18.0/23
156.239.152.0/22
162.158.0.0/15
162.247.243.0/24
162.251.82.0/24
168.100.6.0/24
172.64.0.0/13
173.245.48.0/20
174.136.134.0/24
176.126.206.0/23
185.72.49.0/24
185.109.21.0/24
185.122.0.0/24
185.146.172.0/24
185.162.228.0/22
185.170.166.0/24
185.171.230.0/23
185.174.138.0/24
185.176.26.0/24
185.193.28.0/22
185.200.190.0/24
185.201.139.0/24
185.207.92.0/24
185.212.144.0/24
185.213.240.0/24
185.221.160.0/23
185.223.154.0/24
185.235.180.0/22
185.238.228.0/24
188.114.96.0/20
190.93.240.0/20
191.101.251.0/24
193.16.63.0/24
193.67.144.0/24
193.188.14.0/24
194.1.194.0/24
194.36.49.0/24
194.36.55.0/24
194.36.216.0/22
194.40.240.0/23
194.53.53.0/24
194.53.55.0/24
194.87.58.0/23
194.152.44.0/24
194.169.194.0/24
195.85.23.0/24
195.85.59.0/24
195.85.88.0/24
195.88.213.0/24
195.137.167.0/24
195.242.122.0/23
195.245.221.0/24
196.13.241.0/24
196.207.45.0/24
197.234.240.0/22
198.41.128.0/17
198.217.251.0/24
199.27.132.0/24
199.60.103.0/24
199.181.197.0/24
202.45.130.0/24
203.13.32.0/24
203.17.126.0/24
203.22.223.0/24
203.23.103.0/24
203.23.104.0/24
203.23.106.0/24
203.24.102.0/23
203.24.108.0/23
203.28.8.0/23
203.29.52.0/22
203.30.188.0/22
203.32.120.0/23
203.34.28.0/24
203.34.80.0/24
203.55.107.0/24
203.107.173.0/24
203.193.21.0/24
204.62.141.0/24
204.68.111.0/24
206.196.23.0/24
207.189.149.0/24
208.100.60.0/24
212.110.134.0/23
216.24.57.0/24
